test-module
…
3c. Get rid of country_code, discipline_code, residence_place, residence_country, and url.

4d. See if you can figure out how to separate the height variable into just meters and convert it into a numeric value.

3. Data Summarization

Next lets look at summarizing some statistics using our cleaned medals data set. First, lets see which country has the most medal winners in our data set using dplyr.

medalsTidy |>
  group_by(country) |>
  summarise(medal_count = n()) |>
  arrange(desc(medal_count))

# A tibble: 29 × 2
   country                  medal_count
   <chr>                          <int>
 1 Republic of China                 86
 2 Canada                            67
 3 United States of America          63
 4 Germany                           60
 5 Norway                            58
 6 Finland                           55
 7 Japan                             34
 8 Sweden                            34
 9 Austria                           30
10 Italy                             27
# ℹ 19 more rows
…
