Scrape with Chrome
…
Warning: Expected 2 pieces. Missing pieces filled with `NA` in 4 rows [1, 28,
29, 30].

Warning: There was 1 warning in `mutate()`.
ℹ In argument: `Total = period_to_seconds(ms(Total))`.
Caused by warning in `.parse_hms()`:
! Some strings failed to parse

Warning: Expected 2 pieces. Missing pieces filled with `NA` in 4 rows [1, 28,
29, 30].

# A tibble: 30 × 12
   Rank  `N°`  Bib   Name          Nat   Total  Diff    Pr Run_1_Time Run_1_Rank
   <chr> <chr> <chr> <chr>         <chr> <dbl> <dbl> <dbl> <chr>           <dbl>
 1 1     30    4     BRIGNONE Fed… ITA    135.  0        0 1:06.50             1
 2 2     27    6     VLHOVA Petra  SVK    135.  0.21     2 +0.40               4
 3 3     26    3     SHIFFRIN Mik… USA    135.  0.29     2 +0.47               5
 4 4     29    5     HECTOR Sara   SWE    136.  0.56    -2 +0.11               2
 5 5     28    1     GUT-BEHRAMI … SUI    136.  0.59    -2 +0.35               3
 6 6     24    7     BASSINO Marta ITA    136.  1.04     1 +0.96               7
 7 7     22    18    GOGGIA Sofia  ITA    137.  1.62     2 +1.41               9
 8 8     25    2     GRENIER Vale… CAN    137.  1.85    -2 +0.77               6
 9 9     16    12    STJERNESUND … NOR    137.  2.24     6 +2.20              15
10 10    21    42    DIREZ Clara   FRA    137.  2.35     0 +1.76              10
# ℹ 20 more rows
# ℹ 2 more variables: Run_2_Time <chr>, Run_2_Rank <chr>
