nba_draft_exploration
…
# A tibble: 1 × 22
  pick_overall team  player_name  college years_played games_played
         <dbl> <chr> <chr>        <chr>          <dbl>        <dbl>
1            5 GSW   Vince Carter UNC               22         1541
# ℹ 16 more variables: total_mins_played <dbl>, total_pts <dbl>,
#   total_rebounds <dbl>, total_assists <dbl>, fg_percent <dbl>,
#   three_pt_percent <dbl>, ft_percent <dbl>, win_shares <dbl>,
#   win_shares_per_48 <dbl>, draft_year <dbl>, mins_per_game <dbl>,
#   pts_per_game <dbl>, rebounds_per_game <dbl>, assists_per_game <dbl>,
#   round_picked <dbl>, pick_in_round <dbl>

#seeing divisions based on years played 
nba_draft %>% filter(years_played >= 0 & years_played <= 5)

# A tibble: 870 × 22
   pick_overall team  player_name    college          years_played games_played
          <dbl> <chr> <chr>          <chr>                   <dbl>        <dbl>
 1            8 LAC   Bo Kimble      Loyola Marymount            3          105
 2           12 HOU   Alec Kessler   Georgia                     4          210
 3           14 SAC   Travis Mays    Texas                       3          115
 4           15 MIA   Dave Jamerson  Ohio University             3           90
 5           17 NYK   Jerrod Mustaf  Maryland                    4          179
 6           20 MIN   Gerald Glass   Ole Miss                    4          201
 7           22 BRK   Tate George    UConn                       4          177
 8           25 POR   Alaa Abdelnaby Duke                        5          256
 9           26 DET   Lance Blanks   Texas                       3          142
10           28 GSW   Les Jepsen     Iowa                        2           52
# ℹ 860 more rows
# ℹ 16 more variables: total_mins_played <dbl>, total_pts <dbl>,
#   total_rebounds <dbl>, total_assists <dbl>, fg_percent <dbl>,
#   three_pt_percent <dbl>, ft_percent <dbl>, win_shares <dbl>,
#   win_shares_per_48 <dbl>, draft_year <dbl>, mins_per_game <dbl>,
#   pts_per_game <dbl>, rebounds_per_game <dbl>, assists_per_game <dbl>,
#   round_picked <dbl>, pick_in_round <dbl>

nba_draft %>% filter(years_played > 5 & years_played <= 10)

# A tibble: 403 × 22
   pick_overall team  player_name        college      years_played games_played
          <dbl> <chr> <chr>              <chr>               <dbl>        <dbl>
 1            3 DEN   Mahmoud Abdul-Rauf LSU                     9          586
 2            4 ORL   Dennis Scott       Georgia Tech           10          629
 3            7 SAC   Lionel Simmons     La Salle                7          454
 4            9 MIA   Willie Burton      Minnesota               8          316
 5           10 ATL   Rumeal Robinson    Michigan                6          336
 6           21 PHO   Jayson Williams    St. John's              9          475
 7           23 SAC   Anthony Bonner     Saint Louis             6          318
 8           24 SAS   Dwayne Schintzius  Florida                 8          217
 9           30 MIA   Carl Herrera       Houston                 8          465
10           31 PHO   Negele Knight      Dayton                  6          276
# ℹ 393 more rows
# ℹ 16 more variables: total_mins_played <dbl>, total_pts <dbl>,
#   total_rebounds <dbl>, total_assists <dbl>, fg_percent <dbl>,
#   three_pt_percent <dbl>, ft_percent <dbl>, win_shares <dbl>,
#   win_shares_per_48 <dbl>, draft_year <dbl>, mins_per_game <dbl>,
#   pts_per_game <dbl>, rebounds_per_game <dbl>, assists_per_game <dbl>,
#   round_picked <dbl>, pick_in_round <dbl>

nba_draft %>% filter(years_played > 10 & years_played <= 15)

# A tibble: 285 × 22
   pick_overall team  player_name     college          years_played games_played
          <dbl> <chr> <chr>           <chr>                   <dbl>        <dbl>
 1            1 BRK   Derrick Coleman Syracuse                   15          781
 2            5 CHA   Kendall Gill    Illinois                   15          966
 3            6 MIN   Felton Spencer  Louisville                 12          640
 4           11 GSW   Tyrone Hill     Xavier                     14          801
 5           13 LAC   Loy Vaught      Michigan                   11          689
 6           16 MIL   Terry Mills     Michigan                   11          678
 7           18 SAC   Duane Causwell  Temple                     11          541
 8           19 BOS   Dee Brown       Jacksonville Un…           12          608
 9           27 LAL   Elden Campbell  Clemson                    15         1044
10           29 CHI   Toni Kukoč      <NA>                       13          846
# ℹ 275 more rows
# ℹ 16 more variables: total_mins_played <dbl>, total_pts <dbl>,
#   total_rebounds <dbl>, total_assists <dbl>, fg_percent <dbl>,
#   three_pt_percent <dbl>, ft_percent <dbl>, win_shares <dbl>,
#   win_shares_per_48 <dbl>, draft_year <dbl>, mins_per_game <dbl>,
#   pts_per_game <dbl>, rebounds_per_game <dbl>, assists_per_game <dbl>,
#   round_picked <dbl>, pick_in_round <dbl>

nba_draft %>% filter(years_played > 15)

# A tibble: 63 × 22
   pick_overall team  player_name      college         years_played games_played
          <dbl> <chr> <chr>            <chr>                  <dbl>        <dbl>
 1            2 OKC   Gary Payton      Oregon State              17         1335
 2            4 DEN   Dikembe Mutombo  Georgetown                18         1196
 3           13 IND   Dale Davis       Clemson                   16         1094
 4            1 ORL   Shaquille O'Neal LSU                       19         1207
 5           11 HOU   Robert Horry     Alabama                   16         1107
 6           10 DET   Lindsey Hunter   Jackson State …           17          937
 7            2 DAL   Jason Kidd       California                19         1391
 8            3 DET   Grant Hill       Duke                      18         1026
 9            5 WAS   Juwan Howard     Michigan                  19         1208
10            1 GSW   Joe Smith        Maryland                  16         1030
# ℹ 53 more rows
# ℹ 16 more variables: total_mins_played <dbl>, total_pts <dbl>,
#   total_rebounds <dbl>, total_assists <dbl>, fg_percent <dbl>,
#   three_pt_percent <dbl>, ft_percent <dbl>, win_shares <dbl>,
#   win_shares_per_48 <dbl>, draft_year <dbl>, mins_per_game <dbl>,
#   pts_per_game <dbl>, rebounds_per_game <dbl>, assists_per_game <dbl>,
#   round_picked <dbl>, pick_in_round <dbl>
…
looks pretty normal

nba_round1s %>% filter(pick_in_round >= 1 & pick_in_round <= 10)

# A tibble: 320 × 22
   pick_overall team  player_name        college       years_played games_played
          <dbl> <chr> <chr>              <chr>                <dbl>        <dbl>
 1            1 BRK   Derrick Coleman    Syracuse                15          781
 2            2 OKC   Gary Payton        Oregon State            17         1335
 3            3 DEN   Mahmoud Abdul-Rauf LSU                      9          586
 4            4 ORL   Dennis Scott       Georgia Tech            10          629
 5            5 CHA   Kendall Gill       Illinois                15          966
 6            6 MIN   Felton Spencer     Louisville              12          640
 7            7 SAC   Lionel Simmons     La Salle                 7          454
 8            8 LAC   Bo Kimble          Loyola Marym…            3          105
 9            9 MIA   Willie Burton      Minnesota                8          316
10           10 ATL   Rumeal Robinson    Michigan                 6          336
# ℹ 310 more rows
# ℹ 16 more variables: total_mins_played <dbl>, total_pts <dbl>,
#   total_rebounds <dbl>, total_assists <dbl>, fg_percent <dbl>,
#   three_pt_percent <dbl>, ft_percent <dbl>, win_shares <dbl>,
#   win_shares_per_48 <dbl>, draft_year <dbl>, mins_per_game <dbl>,
#   pts_per_game <dbl>, rebounds_per_game <dbl>, assists_per_game <dbl>,
#   round_picked <fct>, pick_in_round <dbl>

nba_round1s %>% filter(pick_in_round > 10 & pick_in_round <= 20)

# A tibble: 318 × 22
   pick_overall team  player_name    college           years_played games_played
          <dbl> <chr> <chr>          <chr>                    <dbl>        <dbl>
 1           11 GSW   Tyrone Hill    Xavier                      14          801
 2           12 HOU   Alec Kessler   Georgia                      4          210
 3           13 LAC   Loy Vaught     Michigan                    11          689
 4           14 SAC   Travis Mays    Texas                        3          115
 5           15 MIA   Dave Jamerson  Ohio University              3           90
 6           16 MIL   Terry Mills    Michigan                    11          678
 7           17 NYK   Jerrod Mustaf  Maryland                     4          179
 8           18 SAC   Duane Causwell Temple                      11          541
 9           19 BOS   Dee Brown      Jacksonville Uni…           12          608
10           20 MIN   Gerald Glass   Ole Miss                     4          201
# ℹ 308 more rows
# ℹ 16 more variables: total_mins_played <dbl>, total_pts <dbl>,
#   total_rebounds <dbl>, total_assists <dbl>, fg_percent <dbl>,
#   three_pt_percent <dbl>, ft_percent <dbl>, win_shares <dbl>,
#   win_shares_per_48 <dbl>, draft_year <dbl>, mins_per_game <dbl>,
#   pts_per_game <dbl>, rebounds_per_game <dbl>, assists_per_game <dbl>,
#   round_picked <fct>, pick_in_round <dbl>

nba_round1s %>% filter(pick_in_round > 20 & pick_in_round <= 30)

# A tibble: 288 × 22
   pick_overall team  player_name       college     years_played games_played
          <dbl> <chr> <chr>             <chr>              <dbl>        <dbl>
 1           21 PHO   Jayson Williams   St. John's             9          475
 2           22 BRK   Tate George       UConn                  4          177
 3           23 SAC   Anthony Bonner    Saint Louis            6          318
 4           24 SAS   Dwayne Schintzius Florida                8          217
 5           25 POR   Alaa Abdelnaby    Duke                   5          256
 6           26 DET   Lance Blanks      Texas                  3          142
 7           27 LAL   Elden Campbell    Clemson               15         1044
 8           21 UTA   Eric Murdock      Providence             9          508
 9           22 LAC   LeRon Ellis       Syracuse               3           91
10           23 ORL   Stanley Roberts   LSU                    8          300
# ℹ 278 more rows
# ℹ 16 more variables: total_mins_played <dbl>, total_pts <dbl>,
#   total_rebounds <dbl>, total_assists <dbl>, fg_percent <dbl>,
#   three_pt_percent <dbl>, ft_percent <dbl>, win_shares <dbl>,
#   win_shares_per_48 <dbl>, draft_year <dbl>, mins_per_game <dbl>,
#   pts_per_game <dbl>, rebounds_per_game <dbl>, assists_per_game <dbl>,
#   round_picked <fct>, pick_in_round <dbl>
…
