Exploring NCAA Men’s Water Polo: Data Wrangling and Visualization
…
# editing format 
join <- join %>%
  rename(
    Conference = Conference.x,
    `Total Assists` = n_assists,
    `Total Goals` = n_goals
  )

join <- join[, c("Conference", "Team", "Total Assists", "Total Goals")]

join

# A tibble: 27 × 4
# Groups:   Team [27]
   Conference                                Team  `Total Assists` `Total Goals`
   <fct>                                     <chr>           <dbl>         <dbl>
 1 Western Waterpolo Association             Sale…             150           322
 2 Northeast Waterpolo Conference            Iona              167           258
 3 Northeast Waterpolo Conference            Long…             149           214
 4 West Coast Conference                     Cali…             272           176
 5 Southern California Intercollegiate Athl… La V…              78           176
 6 West Coast Conference                     Air …              59           172
 7 Mid Atlantic Waterpolo Conference         Wagn…             182           161
 8 Mountain Pacific Sports Federation        Augu…              64           153
 9 Western Waterpolo Association             Biol…             148           146
10 Big West                                  Univ…              67           146
# ℹ 17 more rows
…
